[gd_scene load_steps=6 format=2]

[ext_resource path="res://src/Game.gd" type="Script" id=1]
[ext_resource path="res://src/Mob.tscn" type="PackedScene" id=2]
[ext_resource path="res://src/Player.tscn" type="PackedScene" id=3]
[ext_resource path="res://src/HUD/HUD.tscn" type="PackedScene" id=4]

[sub_resource type="Curve2D" id=1]
_data = {
"points": PoolVector2Array( 0, 0, 0, 0, 0, 0, 0, 0, 0, 0, 480, 0, 0, 0, 0, 0, 480, 720, 0, 0, 0, 0, 0, 720, 0, 0, 0, 0, -0.901337, 0.225891 )
}

[node name="Game" type="Node2D"]
script = ExtResource( 1 )
Mob = ExtResource( 2 )

[node name="HUD" parent="." instance=ExtResource( 4 )]

[node name="ColorRect" type="ColorRect" parent="."]
anchor_right = 1.0
anchor_bottom = 1.0
margin_right = 480.0
margin_bottom = 720.0
color = Color( 0.223529, 0.317647, 0.368627, 1 )
__meta__ = {
"_edit_use_anchors_": false
}

[node name="Player" parent="." instance=ExtResource( 3 )]
visible = false
position = Vector2( 240, 450 )

[node name="MobTimer" type="Timer" parent="."]
wait_time = 0.5

[node name="ScoreTimer" type="Timer" parent="."]

[node name="StartTimer" type="Timer" parent="."]
wait_time = 1.5
one_shot = true

[node name="MobPath" type="Path2D" parent="."]
curve = SubResource( 1 )

[node name="MobSpawner" type="PathFollow2D" parent="MobPath"]
